node,site,state,uid,x,y,z
m3-1.lille.iot-lab.info,lille,Alive,9074,10.81,9.832,2.6
m3-3.lille.iot-lab.info,lille,Alive,1552,15.61,9.832,2.6
m3-6.lille.iot-lab.info,lille,Alive,1554,12.01,11.102,2.6
m3-9.lille.iot-lab.info,lille,Alive,561,8.58,11.996,2.6
m3-10.lille.iot-lab.info,lille,Dead,uuuu,7.38,13.196,2.6
m3-11.lille.iot-lab.info,lille,Alive,2455,9.78,13.196,2.6
m3-14.lille.iot-lab.info,lille,Alive,857,14.89,22.035,2.6
m3-15.lille.iot-lab.info,lille,Alive,3454,17.29,22.035,2.6
m3-18.lille.iot-lab.info,lille,Alive,9873,17.29,24.435,2.6
m3-19.lille.iot-lab.info,lille,Alive,b272,13.09,26.835,2.6
m3-23.lille.iot-lab.info,lille,Alive,9973,17.29,29.235,2.6
m3-24.lille.iot-lab.info,lille,Alive,b472,13.09,31.635,2.6
m3-26.lille.iot-lab.info,lille,Alive,1852,17.29,31.635,2.6
m3-27.lille.iot-lab.info,lille,Alive,a170,5.82,37.05,2.6
m3-28.lille.iot-lab.info,lille,Alive,b770,7.21,38.25,2.6
m3-29.lille.iot-lab.info,lille,Alive,1257,5.82,39.45,2.6
m3-32.lille.iot-lab.info,lille,Alive,3358,5.82,44.25,2.6
m3-33.lille.iot-lab.info,lille,Alive,3158,7.21,45.45,2.6
m3-34.lille.iot-lab.info,lille,Alive,8773,5.82,46.65,2.6
m3-38.lille.iot-lab.info,lille,Alive,3858,5.82,51.685,2.6
m3-39.lille.iot-lab.info,lille,Alive,2152,10.81,51.685,2.6
m3-40.lille.iot-lab.info,lille,Alive,b273,13.21,51.685,2.6
m3-42.lille.iot-lab.info,lille,Alive,a889,9.61,52.91,2.6
m3-44.lille.iot-lab.info,lille,Alive,2651,14.41,52.91,2.6
m3-47.lille.iot-lab.info,lille,Alive,1854,5.77,7.24,6.1
m3-49.lille.iot-lab.info,lille,Alive,2159,5.77,9.68,6.1
m3-51.lille.iot-lab.info,lille,Alive,b973,10.77,9.68,6.1
m3-52.lille.iot-lab.info,lille,Alive,3658,13.17,9.68,6.1
m3-54.lille.iot-lab.info,lille,Alive,3151,7.17,10.9,6.1
m3-56.lille.iot-lab.info,lille,Alive,a273,11.97,10.9,6.1
m3-57.lille.iot-lab.info,lille,Alive,1256,14.37,10.9,6.1
m3-63.lille.iot-lab.info,lille,Alive,c070,5.77,14.48,6.1
m3-64.lille.iot-lab.info,lille,Alive,1758,8.29,14.48,6.1
m3-65.lille.iot-lab.info,lille,Alive,b473,7.17,15.68,6.1
m3-66.lille.iot-lab.info,lille,Alive,1857,5.77,16.88,6.1
m3-67.lille.iot-lab.info,lille,Alive,1957,7.77,17.04,6.1
m3-70.lille.iot-lab.info,lille,Alive,a070,7.17,20.48,6.1
m3-71.lille.iot-lab.info,lille,Alive,1654,5.77,21.68,6.1
m3-72.lille.iot-lab.info,lille,Alive,uuuu,8.37,21.84,6.1
m3-73.lille.iot-lab.info,lille,Suspected,1956,10.77,21.84,6.1
m3-74.lille.iot-lab.info,lille,Alive,1951,7.17,23.34,6.1
m3-76.lille.iot-lab.info,lille,Alive,2955,5.77,24.08,6.1
m3-79.lille.iot-lab.info,lille,Alive,861,7.17,25.28,6.1
m3-80.lille.iot-lab.info,lille,Alive,2750,5.77,26.48,6.1
m3-82.lille.iot-lab.info,lille,Alive,2156,9.82,26.48,6.1
m3-83.lille.iot-lab.info,lille,Alive,a489,7.17,27.68,6.1
m3-85.lille.iot-lab.info,lille,Alive,9773,7.17,30.08,6.1
m3-87.lille.iot-lab.info,lille,Alive,2155,7.17,32.48,6.1
m3-88.lille.iot-lab.info,lille,Alive,c073,7.17,34.88,6.1
m3-89.lille.iot-lab.info,lille,Alive,a990,5.77,36.08,6.1
m3-90.lille.iot-lab.info,lille,Dead,3051,19.7,11.51,6.1
m3-91.lille.iot-lab.info,lille,Dead,1161,17.9,12.41,6.1
m3-92.lille.iot-lab.info,lille,Dead,3962,21.5,12.41,6.1
m3-94.lille.iot-lab.info,lille,Dead,3152,17.9,14.21,6.1
m3-95.lille.iot-lab.info,lille,Dead,3159,21.5,14.21,6.1
m3-97.lille.iot-lab.info,lille,Dead,2055,17.9,16.01,6.1
m3-100.lille.iot-lab.info,lille,Alive,9989,25.95,0.85,6.1
m3-102.lille.iot-lab.info,lille,Alive,1859,23.55,2.95,6.1
m3-104.lille.iot-lab.info,lille,Alive,1359,28.35,2.95,6.1
m3-106.lille.iot-lab.info,lille,Alive,a871,25.95,5.05,6.1
m3-108.lille.iot-lab.info,lille,Alive,1658,25.95,7.15,6.1
m3-110.lille.iot-lab.info,lille,Alive,8573,23.55,9.25,6.1
m3-111.lille.iot-lab.info,lille,Alive,2257,28.35,9.25,6.1
m3-113.lille.iot-lab.info,lille,Dead,uuuu,4.33,5.63,9.6
m3-114.lille.iot-lab.info,lille,Alive,2158,7.24,5.54,9.6
m3-115.lille.iot-lab.info,lille,Alive,9170,15.11,5.54,9.6
m3-116.lille.iot-lab.info,lille,Alive,2150,7.24,9.575,9.6
m3-118.lille.iot-lab.info,lille,Alive,1358,0.68,9.68,9.6
m3-121.lille.iot-lab.info,lille,Suspected,c473,0.68,17.78,9.6
m3-122.lille.iot-lab.info,lille,Alive,2452,4.33,17.78,9.6
m3-125.lille.iot-lab.info,lille,Alive,1357,13.605,25.88,9.6
m3-127.lille.iot-lab.info,lille,Suspected,1752,13.605,29.86,9.6
m3-128.lille.iot-lab.info,lille,Alive,2650,13.605,33.88,9.6
m3-130.lille.iot-lab.info,lille,Alive,3055,18.51,0.3,8.5
m3-131.lille.iot-lab.info,lille,Alive,3259,19.71,0.3,7.6
m3-132.lille.iot-lab.info,lille,Alive,1453,20.91,0.3,8.5
m3-133.lille.iot-lab.info,lille,Alive,8974,22.11,0.3,7.6
m3-134.lille.iot-lab.info,lille,Alive,1055,23.31,0.3,8.5
m3-135.lille.iot-lab.info,lille,Alive,1158,24.51,0.3,7.6
m3-136.lille.iot-lab.info,lille,Alive,3455,25.71,0.3,8.5
m3-138.lille.iot-lab.info,lille,Alive,2355,28.11,0.3,8.5
m3-140.lille.iot-lab.info,lille,Alive,2652,30.51,0.3,8.5
m3-142.lille.iot-lab.info,lille,Alive,1656,32.91,0.3,8.5
m3-143.lille.iot-lab.info,lille,Alive,3862,19.71,0.5,9.6
m3-144.lille.iot-lab.info,lille,Alive,1759,22.11,0.5,9.6
m3-145.lille.iot-lab.info,lille,Alive,b373,24.51,0.5,9.6
m3-148.lille.iot-lab.info,lille,Alive,b370,31.71,0.5,9.6
m3-149.lille.iot-lab.info,lille,Alive,1757,33.79,0.5,9.4
m3-156.lille.iot-lab.info,lille,Alive,3759,28.11,1.7,9.6
m3-157.lille.iot-lab.info,lille,Alive,2755,30.51,1.7,9.6
m3-159.lille.iot-lab.info,lille,Alive,1657,33.79,1.7,8.5
m3-160.lille.iot-lab.info,lille,Alive,a673,17.79,2.9,8.5
m3-161.lille.iot-lab.info,lille,Alive,a390,19.71,2.9,9.6
m3-163.lille.iot-lab.info,lille,Alive,8774,24.51,2.9,9.6
m3-169.lille.iot-lab.info,lille,Alive,1459,18.51,4.1,9.6
m3-170.lille.iot-lab.info,lille,Alive,b671,20.91,4.1,9.6
m3-173.lille.iot-lab.info,lille,Alive,c170,28.11,4.1,9.6
m3-174.lille.iot-lab.info,lille,Alive,9273,30.51,4.1,9.6
m3-177.lille.iot-lab.info,lille,Alive,9070,17.79,5.3,8.5
m3-178.lille.iot-lab.info,lille,Alive,a473,19.71,5.3,9.6
m3-179.lille.iot-lab.info,lille,Alive,660,22.11,5.3,9.6
m3-181.lille.iot-lab.info,lille,Alive,b172,26.91,5.3,9.6
m3-182.lille.iot-lab.info,lille,Alive,2853,29.31,5.3,9.6
m3-184.lille.iot-lab.info,lille,Alive,3154,31.71,5.3,7.6
m3-187.lille.iot-lab.info,lille,Alive,1154,23.11,5.65,8.5
m3-188.lille.iot-lab.info,lille,Alive,2556,23.11,5.65,7.6
m3-190.lille.iot-lab.info,lille,Alive,758,28.51,5.65,7.6
m3-193.lille.iot-lab.info,lille,Alive,3558,23.31,6.5,9.6
m3-194.lille.iot-lab.info,lille,Alive,1159,25.71,6.5,9.6
m3-195.lille.iot-lab.info,lille,Alive,b388,28.11,6.5,9.6
m3-196.lille.iot-lab.info,lille,Alive,2451,30.51,6.5,9.6
m3-197.lille.iot-lab.info,lille,Alive,957,31.87,6.5,8.5
m3-200.lille.iot-lab.info,lille,Alive,9270,24.51,7.7,9.6
m3-202.lille.iot-lab.info,lille,Alive,9877,29.31,7.7,9.6
m3-203.lille.iot-lab.info,lille,Alive,c273,31.71,7.7,9.6
m3-204.lille.iot-lab.info,lille,Alive,b972,31.87,7.7,7.6
m3-209.lille.iot-lab.info,lille,Alive,2050,28.11,8.9,9.6
m3-210.lille.iot-lab.info,lille,Alive,1855,30.51,8.9,9.6
m3-211.lille.iot-lab.info,lille,Alive,1754,31.87,8.9,8.5
m3-212.lille.iot-lab.info,lille,Alive,c373,18.51,9.36,7.6
m3-213.lille.iot-lab.info,lille,Alive,1355,19.71,9.36,8.5
m3-214.lille.iot-lab.info,lille,Alive,2951,20.91,9.36,8.5
m3-215.lille.iot-lab.info,lille,Alive,a771,22.11,9.36,7.6
m3-216.lille.iot-lab.info,lille,Alive,1156,24.51,9.36,8.5
m3-217.lille.iot-lab.info,lille,Alive,b970,25.71,9.36,7.6
m3-218.lille.iot-lab.info,lille,Alive,b389,26.91,9.36,8.5
m3-219.lille.iot-lab.info,lille,Alive,8474,22.11,10.1,9.6
m3-220.lille.iot-lab.info,lille,Alive,a873,24.51,10.1,9.6
m3-221.lille.iot-lab.info,lille,Alive,3059,26.91,10.1,9.6
m3-223.lille.iot-lab.info,lille,Alive,a289,31.71,10.1,9.6
m3-226.lille.iot-lab.info,lille,Alive,9573,20.91,11.3,9.6
m3-228.lille.iot-lab.info,lille,Alive,1455,25.71,11.3,9.6
m3-229.lille.iot-lab.info,lille,Alive,9770,28.11,11.3,9.6
m3-230.lille.iot-lab.info,lille,Alive,2751,30.51,11.3,9.6
m3-232.lille.iot-lab.info,lille,Alive,3659,19.71,12.5,9.6
m3-233.lille.iot-lab.info,lille,Alive,8873,22.11,12.5,9.6
m3-236.lille.iot-lab.info,lille,Alive,2352,29.31,12.5,9.6
m3-238.lille.iot-lab.info,lille,Alive,9373,18.51,13.7,9.6
m3-239.lille.iot-lab.info,lille,Alive,c270,20.91,13.7,9.6
m3-240.lille.iot-lab.info,lille,Alive,b288,23.31,13.7,9.6
m3-241.lille.iot-lab.info,lille,Alive,b070,25.71,13.7,9.6
m3-243.lille.iot-lab.info,lille,Alive,b073,30.51,13.7,9.6
m3-244.lille.iot-lab.info,lille,Alive,1258,32.91,13.7,9.6
m3-245.lille.iot-lab.info,lille,Alive,2851,19.71,14.9,9.6
m3-246.lille.iot-lab.info,lille,Alive,2251,22.11,14.9,9.6
m3-248.lille.iot-lab.info,lille,Alive,3153,26.91,14.9,9.6
m3-250.lille.iot-lab.info,lille,Alive,2659,18.51,16.1,9.6
m3-253.lille.iot-lab.info,lille,Alive,b871,25.71,16.1,9.6
m3-254.lille.iot-lab.info,lille,Alive,2358,28.11,16.1,9.6
m3-255.lille.iot-lab.info,lille,Alive,b371,30.51,16.1,9.6
m3-256.lille.iot-lab.info,lille,Alive,2554,32.91,16.1,9.6
m3-2.lille.iot-lab.info,lille,Alive,a790,13.21,9.832,2.6
m3-4.lille.iot-lab.info,lille,Alive,3859,7.21,11.102,2.6
m3-5.lille.iot-lab.info,lille,Alive,1457,9.61,11.102,2.6
m3-7.lille.iot-lab.info,lille,Suspected,2858,14.41,11.102,2.6
m3-8.lille.iot-lab.info,lille,Alive,2051,16.81,11.102,2.6
m3-12.lille.iot-lab.info,lille,Alive,a590,8.58,14.396,2.6
m3-13.lille.iot-lab.info,lille,Alive,1255,13.09,22.035,2.6
m3-16.lille.iot-lab.info,lille,Alive,1155,13.09,24.435,2.6
m3-17.lille.iot-lab.info,lille,Alive,1061,14.89,24.435,2.6
m3-20.lille.iot-lab.info,lille,Alive,b873,17.29,26.835,2.6
m3-21.lille.iot-lab.info,lille,Alive,a373,13.09,29.235,2.6
m3-22.lille.iot-lab.info,lille,Alive,3758,14.89,29.235,2.6
m3-25.lille.iot-lab.info,lille,Alive,2758,14.89,31.635,2.6
m3-30.lille.iot-lab.info,lille,Alive,a389,5.82,41.85,2.6
m3-31.lille.iot-lab.info,lille,Alive,1954,7.21,43.05,2.6
m3-35.lille.iot-lab.info,lille,Alive,3355,7.21,47.85,2.6
m3-36.lille.iot-lab.info,lille,Alive,9577,5.82,49.05,2.6
m3-37.lille.iot-lab.info,lille,Alive,2754,7.21,50.25,2.6
m3-41.lille.iot-lab.info,lille,Alive,2552,7.21,52.91,2.6
m3-43.lille.iot-lab.info,lille,Alive,1454,12.01,52.91,2.6
m3-45.lille.iot-lab.info,lille,Alive,b571,5.82,54.085,2.6
m3-46.lille.iot-lab.info,lille,Alive,b772,7.17,6.04,6.1
m3-48.lille.iot-lab.info,lille,Alive,956,16.77,8.01,6.1
m3-50.lille.iot-lab.info,lille,Alive,b289,8.37,9.68,6.1
m3-53.lille.iot-lab.info,lille,Alive,1651,15.57,9.68,6.1
m3-55.lille.iot-lab.info,lille,Alive,b771,9.57,10.9,6.1
m3-58.lille.iot-lab.info,lille,Alive,8674,16.77,10.9,6.1
m3-59.lille.iot-lab.info,lille,Alive,b271,5.77,12.08,6.1
m3-60.lille.iot-lab.info,lille,Alive,761,8.29,12.08,6.1
m3-61.lille.iot-lab.info,lille,Alive,3254,7.17,13.28,6.1
m3-62.lille.iot-lab.info,lille,Alive,2359,9.49,13.28,6.1
m3-68.lille.iot-lab.info,lille,Alive,2855,7.17,19.12,6.1
m3-69.lille.iot-lab.info,lille,Alive,a689,5.77,19.28,6.1
m3-75.lille.iot-lab.info,lille,Alive,8973,9.57,23.34,6.1
m3-77.lille.iot-lab.info,lille,Alive,1756,8.02,24.08,6.1
m3-78.lille.iot-lab.info,lille,Alive,2250,9.82,24.08,6.1
m3-81.lille.iot-lab.info,lille,Alive,1556,8.02,26.48,6.1
m3-84.lille.iot-lab.info,lille,Alive,9370,5.77,28.88,6.1
m3-86.lille.iot-lab.info,lille,Alive,b471,5.77,31.28,6.1
m3-93.lille.iot-lab.info,lille,Dead,3453,19.7,13.31,6.1
m3-96.lille.iot-lab.info,lille,Dead,a890,19.7,15.11,6.1
m3-98.lille.iot-lab.info,lille,Dead,1751,21.5,16.01,6.1
m3-99.lille.iot-lab.info,lille,Alive,959,23.55,0.85,6.1
m3-101.lille.iot-lab.info,lille,Alive,b870,28.35,0.85,6.1
m3-103.lille.iot-lab.info,lille,Alive,958,25.95,2.95,6.1
m3-105.lille.iot-lab.info,lille,Alive,3458,23.55,5.05,6.1
m3-107.lille.iot-lab.info,lille,Alive,759,23.55,7.15,6.1
m3-109.lille.iot-lab.info,lille,Alive,8673,28.35,7.15,6.1
m3-112.lille.iot-lab.info,lille,Alive,b670,0.68,5.63,9.6
m3-117.lille.iot-lab.info,lille,Alive,8374,15.11,9.575,9.6
m3-119.lille.iot-lab.info,lille,Suspected,3155,0.68,13.73,9.6
m3-120.lille.iot-lab.info,lille,Alive,2759,4.33,13.73,9.6
m3-123.lille.iot-lab.info,lille,Alive,8574,0.68,25.77,9.6
m3-124.lille.iot-lab.info,lille,Alive,3258,4.33,25.77,9.6
m3-126.lille.iot-lab.info,lille,Alive,2558,17.255,25.88,9.6
m3-129.lille.iot-lab.info,lille,Alive,9777,17.255,33.88,9.6
m3-137.lille.iot-lab.info,lille,Alive,2655,26.91,0.3,7.6
m3-139.lille.iot-lab.info,lille,Alive,3353,29.31,0.3,7.6
m3-141.lille.iot-lab.info,lille,Alive,1058,31.71,0.3,7.6
m3-146.lille.iot-lab.info,lille,Alive,b189,26.91,0.5,9.6
m3-147.lille.iot-lab.info,lille,Alive,2151,29.31,0.5,9.6
m3-150.lille.iot-lab.info,lille,Alive,1057,33.79,0.5,7.6
m3-151.lille.iot-lab.info,lille,Alive,a090,17.79,1.7,7.6
m3-152.lille.iot-lab.info,lille,Alive,a173,18.51,1.7,9.6
m3-153.lille.iot-lab.info,lille,Alive,b572,20.91,1.7,9.6
m3-154.lille.iot-lab.info,lille,Alive,b071,23.31,1.7,9.6
m3-155.lille.iot-lab.info,lille,Alive,b372,25.71,1.7,9.6
m3-158.lille.iot-lab.info,lille,Alive,2154,32.91,1.7,9.6
m3-162.lille.iot-lab.info,lille,Alive,2854,22.11,2.9,9.6
m3-164.lille.iot-lab.info,lille,Alive,a077,26.91,2.9,9.6
m3-165.lille.iot-lab.info,lille,Alive,2550,31.71,2.9,9.6
m3-166.lille.iot-lab.info,lille,Alive,3052,33.79,2.9,9.4
m3-167.lille.iot-lab.info,lille,Alive,2256,33.79,2.9,7.6
m3-168.lille.iot-lab.info,lille,Alive,b089,17.79,4.1,7.6
m3-171.lille.iot-lab.info,lille,Alive,2258,23.31,4.1,9.6
m3-172.lille.iot-lab.info,lille,Alive,3554,25.71,4.1,9.6
m3-175.lille.iot-lab.info,lille,Alive,2459,32.91,4.1,9.6
m3-176.lille.iot-lab.info,lille,Alive,2555,33.79,4.1,8.5
m3-180.lille.iot-lab.info,lille,Alive,3559,24.51,5.3,9.6
m3-183.lille.iot-lab.info,lille,Alive,a270,31.71,5.3,9.4
m3-185.lille.iot-lab.info,lille,Alive,b872,33.79,5.3,9.4
m3-186.lille.iot-lab.info,lille,Alive,b488,33.79,5.3,7.6
m3-189.lille.iot-lab.info,lille,Alive,1356,28.51,5.65,8.5
m3-191.lille.iot-lab.info,lille,Alive,8473,18.51,6.5,9.6
m3-192.lille.iot-lab.info,lille,Alive,9570,20.91,6.5,9.6
m3-198.lille.iot-lab.info,lille,Alive,1856,19.71,7.7,9.6
m3-199.lille.iot-lab.info,lille,Alive,9073,22.11,7.7,9.6
m3-201.lille.iot-lab.info,lille,Alive,a189,26.91,7.7,9.6
m3-205.lille.iot-lab.info,lille,Alive,b173,18.51,8.9,9.6
m3-206.lille.iot-lab.info,lille,Alive,2850,20.91,8.9,9.6
m3-207.lille.iot-lab.info,lille,Alive,3359,23.31,8.9,9.6
m3-208.lille.iot-lab.info,lille,Alive,2350,25.71,8.9,9.6
m3-222.lille.iot-lab.info,lille,Alive,9173,29.31,10.1,9.6
m3-224.lille.iot-lab.info,lille,Alive,a490,31.87,10.1,7.6
m3-225.lille.iot-lab.info,lille,Alive,a573,18.51,11.3,9.6
m3-227.lille.iot-lab.info,lille,Alive,2559,23.31,11.3,9.6
m3-231.lille.iot-lab.info,lille,Alive,2052,32.91,11.3,9.6
m3-234.lille.iot-lab.info,lille,Alive,1254,24.51,12.5,9.6
m3-235.lille.iot-lab.info,lille,Alive,b270,26.91,12.5,9.6
m3-237.lille.iot-lab.info,lille,Alive,858,31.71,12.5,9.6
m3-242.lille.iot-lab.info,lille,Alive,2450,28.11,13.7,9.6
m3-247.lille.iot-lab.info,lille,Alive,2551,24.51,14.9,9.6
m3-249.lille.iot-lab.info,lille,Alive,1559,29.31,14.9,9.6
m3-251.lille.iot-lab.info,lille,Alive,2454,20.91,16.1,9.6
m3-252.lille.iot-lab.info,lille,Alive,2458,23.31,16.1,9.6
firefly-1.lille.iot-lab.info,lille,Alive,8c4d,8.41,9.832,2.6
firefly-2.lille.iot-lab.info,lille,Alive,994d,14.89,26.835,2.6
firefly-3.lille.iot-lab.info,lille,Alive,b4aa,8.41,51.685,2.6
firefly-4.lille.iot-lab.info,lille,Alive,f590,7.17,8.44,6.1
firefly-5.lille.iot-lab.info,lille,Alive,uuuu,28.35,5.05,6.1
firefly-6.lille.iot-lab.info,lille,Alive,962c,5.77,33.68,6.1
firefly-7.lille.iot-lab.info,lille,Alive,ec90,4.33,9.68,9.6
firefly-8.lille.iot-lab.info,lille,Alive,9E+090,17.255,29.86,9.6
firefly-9.lille.iot-lab.info,lille,Alive,bb90,29.31,2.9,9.6
firefly-10.lille.iot-lab.info,lille,Alive,97b2,19.71,10.1,9.6
firefly-11.lille.iot-lab.info,lille,Alive,d9b5,31.71,14.9,9.6
firefly-15.lille.iot-lab.info,lille,Alive,c7b1,124.2,-2.7,1.15
m3-260.lille.iot-lab.info,lille,Alive,a488,125.5,-4.0,1.15
st-lrwan1-4.lille.iot-lab.info,lille,Alive,uuuu,123.6,-2.1,1.15
st-lrwan1-3.lille.iot-lab.info,lille,Alive,uuuu,127.5,-2.7,2.35
samr21-2.lille.iot-lab.info,lille,Alive,2307,126.3,-2.9,0
st-lrwan1-5.lille.iot-lab.info,lille,Alive,uuuu,126.9,-3.6,0
m3-261.lille.iot-lab.info,lille,Alive,uuuu,125.6,-2.3,0
firefly-14.lille.iot-lab.info,lille,Alive,8fb1,124.9,-3.4,2.35
firefly-13.lille.iot-lab.info,lille,Alive,f2b1,129.0,-0.6,2.35
st-lrwan1-1.lille.iot-lab.info,lille,Alive,uuuu,126.4,1.9,2.35
firefly-12.lille.iot-lab.info,lille,Alive,dfb1,127.1,2.8,2.35
samr21-1.lille.iot-lab.info,lille,Alive,aa20,124.9,-3.4,1.15
firefly-16.lille.iot-lab.info,lille,Alive,afb1,125.0,-3.1,0
st-lrwan1-2.lille.iot-lab.info,lille,Alive,uuuu,125.0,-0.2,2.35
m3-262.lille.iot-lab.info,lille,Alive,b289,125.7,-3.8,0
m3-263.lille.iot-lab.info,lille,Alive,uuuu,126.1,-4.7,2.35
m3-264.lille.iot-lab.info,lille,Alive,b189,123.6,-2.1,2.35
samr21-3.lille.iot-lab.info,lille,Alive,uuuu,125.6,-0.8,2.35
samr21-4.lille.iot-lab.info,lille,Alive,2015,126.2,-1.4,2.35
samr21-5.lille.iot-lab.info,lille,Alive,uuuu,126.9,-2.1,2.35
microbit-4.lille.iot-lab.info,lille,Alive,9e1f,124.2,-2.7,2.35
microbit-5.lille.iot-lab.info,lille,Alive,9923,125.5,-4.0,2.35
microbit-3.lille.iot-lab.info,lille,Alive,1999,126.1,-4.7,1.15
microbit-1.lille.iot-lab.info,lille,Alive,e081,123.8,-1.9,0
microbit-2.lille.iot-lab.info,lille,Alive,c0b5,126.3,-4.4,0
dwm1001-7.lille.iot-lab.info,lille,Alive,8E2B,25.11,3.5,9.51
dwm1001-14.lille.iot-lab.info,lille,Alive,D4B6,26.91,9.39,7.52
dwm1001-3.lille.iot-lab.info,lille,Alive,0C28,26.91,0.26,8.96
dwm1001-1.lille.iot-lab.info,lille,Alive,122E,23.31,0.26,7.55
dwm1001-12.lille.iot-lab.info,lille,Alive,DC19,24.51,9.39,7.52
dwm1001-6.lille.iot-lab.info,lille,Alive,295,27.51,1.1,9.51
dwm1001-5.lille.iot-lab.info,lille,Alive,DB27,25.11,1.1,9.51
dwm1001-2.lille.iot-lab.info,lille,Alive,420,24.51,0.26,8.96
dwm1001-8.lille.iot-lab.info,lille,Alive,8089,27.51,3.5,9.51
dwm1001-4.lille.iot-lab.info,lille,Alive,0BA1,28.11,0.26,7.55
dwm1001-11.lille.iot-lab.info,lille,Alive,D1B6,27.51,7.1,9.51
dwm1001-10.lille.iot-lab.info,lille,Busy,D6B0,25.11,7.1,9.51
dwm1001-13.lille.iot-lab.info,lille,Alive,4827,25.71,9.39,9.22
dwm1001-9.lille.iot-lab.info,lille,Alive,08A6,26.31,5.9,9.51
